Menu Principal
1 - Novo
2 - Abrir
3 - Guardar
4 - Guardar Como...
5 - Menu de Edição
6 - Menu de Consultas
0 - Sair
Escolha uma opção: Menu de Edição
1 - Visualizar
2 - Inserir
3 - Copiar
4 - Apagar
5 - Cortar
6 - Colar
7 - Mostrar 'cut buffer'
0 - Sair
Escolha uma opção: Especifique a gama (line;col ou startline;startcol:endline;endcol): Insira o conteúdo da célula: Menu de Edição
1 - Visualizar
2 - Inserir
3 - Copiar
4 - Apagar
5 - Cortar
6 - Colar
7 - Mostrar 'cut buffer'
0 - Sair
Escolha uma opção: Especifique a gama (line;col ou startline;startcol:endline;endcol): 4;1|23=SUB(2;1,2)
4;2|23=SUB(2;1,2)
4;3|23=SUB(2;1,2)
Menu de Edição
1 - Visualizar
2 - Inserir
3 - Copiar
4 - Apagar
5 - Cortar
6 - Colar
7 - Mostrar 'cut buffer'
0 - Sair
Escolha uma opção: Menu Principal
1 - Novo
2 - Abrir
3 - Guardar
4 - Guardar Como...
5 - Menu de Edição
6 - Menu de Consultas
0 - Sair
Escolha uma opção: 