Menu Principal
1 - Novo
2 - Abrir
3 - Guardar
4 - Guardar Como...
5 - Menu de Edição
6 - Menu de Consultas
0 - Sair
Escolha uma opção: Menu de Edição
1 - Visualizar
2 - Inserir
3 - Copiar
4 - Apagar
5 - Cortar
6 - Colar
7 - Mostrar 'cut buffer'
0 - Sair
Escolha uma opção: Especifique a gama (line;col ou startline;startcol:endline;endcol): Copiar: Operação inválida: A gama '1;35:23;25' é inválida.
Menu de Edição
1 - Visualizar
2 - Inserir
3 - Copiar
4 - Apagar
5 - Cortar
6 - Colar
7 - Mostrar 'cut buffer'
0 - Sair
Escolha uma opção: Especifique a gama (line;col ou startline;startcol:endline;endcol): Copiar: Operação inválida: A gama '1;1:55;1' é inválida.
Menu de Edição
1 - Visualizar
2 - Inserir
3 - Copiar
4 - Apagar
5 - Cortar
6 - Colar
7 - Mostrar 'cut buffer'
0 - Sair
Escolha uma opção: Menu Principal
1 - Novo
2 - Abrir
3 - Guardar
4 - Guardar Como...
5 - Menu de Edição
6 - Menu de Consultas
0 - Sair
Escolha uma opção: 